…
    ## Rows: 45,024
    ## Columns: 7
    ## $ packet_num <dbl> 1, 2, 3, 4, 5, 6, 7, 8, 9, 10, 11, 12, 13, 14, 15, 16, 17, …
    ## $ ts         <dbl> 0.000000000, 0.004073155, 0.004680329, 0.068286008, 0.06832…
    ## $ src        <chr> "192.168.1.26", "173.223.18.66", "192.168.1.26", "192.168.1…
    ## $ dst        <chr> "13.107.21.200", "192.168.1.26", "173.223.18.66", "13.107.2…
    ## $ proto      <chr> "TCP", "TCP", "TCP", "TLSv1.2", "TLSv1.2", "TLSv1.2", "TCP"…
    ## $ length     <dbl> 74, 66, 66, 525, 624, 104, 74, 66, 191, 66, 66, 66, 66, 66,…
    ## $ info       <chr> "33066 → 443 [SYN] Seq=0 Win=65330 Len=0 MSS=1390 SACK_PERM…

``` r
packets
```

    ## # A tibble: 45,024 x 7
    ##    packet_num      ts src      dst      proto length info                       
    ##         <dbl>   <dbl> <chr>    <chr>    <chr>  <dbl> <chr>                      
    ##  1          1 0       192.168… 13.107.… TCP       74 33066 → 443 [SYN] Seq=0 Wi…
    ##  2          2 0.00407 173.223… 192.168… TCP       66 80 → 51754 [FIN, ACK] Seq=…
    ##  3          3 0.00468 192.168… 173.223… TCP       66 51754 → 80 [FIN, ACK] Seq=…
    ##  4          4 0.0683  192.168… 13.107.… TLSv…    525 Application Data           
    ##  5          5 0.0683  192.168… 13.107.… TLSv…    624 Application Data           
    ##  6          6 0.141   192.168… 13.107.… TLSv…    104 Application Data           
    ##  7          7 0.144   13.107.… 192.168… TCP       74 443 → 33066 [SYN, ACK] Seq…
    ##  8          8 0.144   192.168… 13.107.… TCP       66 33066 → 443 [ACK] Seq=1 Ac…
    ##  9          9 0.145   192.168… 13.107.… TLSv1    191 Client Hello               
    ## 10         10 0.149   173.223… 192.168… TCP       66 80 → 51754 [ACK] Seq=2 Ack…
    ## # … with 45,014 more rows

Now we’ll get an overview of the activity by looking at the number of
packets originating from the target we’re investigating to each distinct
host by protocol:

``` r
packets %>% 
  filter(src == "192.168.1.26") %>% 
  count(src, dst, proto, sort=TRUE) %>% 
  print(n=20) # limiting to 20 rows of output for brevity; IRL you'd likely want to see them all
```

    ## # A tibble: 146 x 4
    ##    src          dst             proto        n
    ##    <chr>        <chr>           <chr>    <int>
    ##  1 192.168.1.26 172.67.162.206  TCP      17942
    ##  2 192.168.1.26 192.168.1.20    FTP-DATA  8568
    ##  3 192.168.1.26 185.70.41.130   TCP       2307
    ##  4 192.168.1.26 23.51.191.35    TCP       1185
    ##  5 192.168.1.26 185.70.41.35    TCP        687
    ##  6 192.168.1.26 159.65.89.65    TCP        394
    ##  7 192.168.1.26 142.250.190.132 QUIC       361
    ##  8 192.168.1.26 23.51.191.35    TLSv1.2    332
    ##  9 192.168.1.26 35.186.220.63   TCP        161
    ## 10 192.168.1.26 13.107.21.200   TCP        133
    ## 11 192.168.1.26 24.35.154.189   UDP        113
    ## 12 192.168.1.26 192.168.1.20    TCP         85
    ## 13 192.168.1.26 52.137.103.130  TCP         83
    ## 14 192.168.1.26 185.70.41.130   TLSv1.3     67
    ## 15 192.168.1.26 104.21.89.171   QUIC        65
    ## 16 192.168.1.26 192.168.0.44    UDP         60
    ## 17 192.168.1.26 204.79.197.200  TCP         47
    ## 18 192.168.1.26 52.137.103.130  TLSv1.2     43
    ## 19 192.168.1.26 13.107.246.254  TCP         39
    ## 20 192.168.1.26 192.168.1.20    FTP         38
    ## # … with 126 more rows
…
    ## ── Column specification ────────────────────────────────────────────────────────
    ## cols(
    ##   .default = col_character(),
    ##   ts = col_double(),
    ##   id.orig_p = col_double(),
    ##   id.resp_p = col_double(),
    ##   missed_bytes = col_double(),
    ##   orig_pkts = col_double(),
    ##   orig_ip_bytes = col_double(),
    ##   resp_pkts = col_double(),
    ##   resp_ip_bytes = col_double()
    ## )
    ## ℹ Use `spec()` for the full column specifications.

    ## # A tibble: 12,443 x 23
    ##         ts uid    id.orig_h id.orig_p id.resp_h id.resp_p proto service duration
    ##      <dbl> <chr>  <chr>         <dbl> <chr>         <dbl> <chr> <chr>   <chr>   
    ##  1  1.62e9 Cd1kC… 192.168.…     51754 173.223.…        80 tcp   -       0.000607
    ##  2  1.62e9 CSUav… 192.168.…     36116 192.168.…        53 udp   dns     0.191884
    ##  3  1.62e9 CoIJj… 192.168.…     33066 13.107.2…       443 tcp   ssl     10.3804…
    ##  4  1.62e9 Cp3g8… 192.168.…     52064 192.168.…        53 udp   dns     0.068408
    ##  5  1.62e9 CRark… 192.168.…     58432 192.168.…        53 udp   dns     0.081218
    ##  6  1.62e9 CEA3J… 192.168.…     45191 192.168.…        53 udp   dns     0.133955
    ##  7  1.62e9 CcAdc… 192.168.…     59660 192.168.…        53 udp   dns     0.097726
    ##  8  1.62e9 CYgYp… 192.168.…     33078 13.107.2…       443 tcp   -       0.138868
    ##  9  1.62e9 CZhaP… 192.168.…     54444 192.168.…        53 udp   dns     -       
    ## 10  1.62e9 CLk9B… 192.168.…     54764 173.223.…       443 tcp   -       0.151084
    ## # … with 12,433 more rows, and 14 more variables: orig_bytes <chr>,
    ## #   resp_bytes <chr>, conn_state <chr>, local_orig <chr>, local_resp <chr>,
    ## #   missed_bytes <dbl>, history <chr>, orig_pkts <dbl>, orig_ip_bytes <dbl>,
    ## #   resp_pkts <dbl>, resp_ip_bytes <dbl>, tunnel_parents <chr>,
    ## #   orig_l2_addr <chr>, resp_l2_addr <chr>
…
